…
``` r
##this for all other generations
avg_fly_size <- pseudo_continuous_female_O_850 %>%
  group_by(generation, replicate) %>%
  summarise(avg_fly_size = mean(sieve_expanded, na.rm = TRUE), .groups = "drop")  # Compute mean sieve size

print(avg_fly_size)
```

    ## # A tibble: 54 × 3
    ##    generation replicate avg_fly_size
    ##    <fct>      <fct>            <dbl>
    ##  1 1          O1               1077.
    ##  2 1          O2               1082.
    ##  3 1          O3               1134.
    ##  4 1          O4               1037.
    ##  5 1          O5               1046.
    ##  6 1          O6               1078.
    ##  7 1          O7               1016.
    ##  8 2          O1               1051.
    ##  9 2          O2               1072.
    ## 10 2          O3               1083.
    ## # ℹ 44 more rows
…
